Climate Change · Satyam's Portfolio
…
# Creating yearly averages

average_annual_anomaly <- tidyweather %>% 
  group_by(Year) %>%   #grouping data by Year
  
# Finding the mean delta
  
  summarise(annual_average_delta = mean(delta, na.rm=TRUE)) 

average_annual_anomaly

## # A tibble: 140 x 2
##     Year annual_average_delta
##    <dbl>                <dbl>
##  1  1880               -0.315
##  2  1881               -0.19 
##  3  1882               -0.214
##  4  1883               -0.318
##  5  1884               -0.439
##  6  1885               -0.405
##  7  1886               -0.415
##  8  1887               -0.403
##  9  1888               -0.222
## 10  1889               -0.161
## # … with 130 more rows
…
